<?xml version="1.0" encoding="UTF-8"?>
<svg width="16px" height="16px" viewBox="0 0 16 16" version="1.1" xmlns="http://www.w3.org/2000/svg" xmlns:xlink="http://www.w3.org/1999/xlink">
    <!-- Generator: Sketch 48.2 (47327) - http://www.bohemiancoding.com/sketch -->
    <title>icon/16px/check-circle-16px</title>
    <desc>Created with Sketch.</desc>
    <defs>
        <path d="M8,13.6 C11.0927946,13.6 13.6,11.0927946 13.6,8 C13.6,4.9072054 11.0927946,2.4 8,2.4 C4.9072054,2.4 2.4,4.9072054 2.4,8 C2.4,11.0927946 4.9072054,13.6 8,13.6 Z M8,15 C4.13400675,15 1,11.8659932 1,8 C1,4.13400675 4.13400675,1 8,1 C11.8659932,1 15,4.13400675 15,8 C15,11.8659932 11.8659932,15 8,15 Z M6.39497475,7.50502525 C6.12160774,7.23165825 5.67839226,7.23165825 5.40502525,7.50502525 C5.13165825,7.77839226 5.13165825,8.22160774 5.40502525,8.49497475 L6.80502525,9.89497475 C7.07839226,10.1683418 7.52160774,10.1683418 7.79497475,9.89497475 L10.5949747,7.09497475 C10.8683418,6.82160774 10.8683418,6.37839226 10.5949747,6.10502525 C10.3216077,5.83165825 9.87839226,5.83165825 9.60502525,6.10502525 L7.3,8.41005051 L6.39497475,7.50502525 Z" id="path-1"></path>
    </defs>
    <g id="Symbols" stroke="none" stroke-width="1" fill="none" fill-rule="evenodd">
        <g id="icon/16px/check-circle">
            <mask id="mask-2" fill="white">
                <use xlink:href="#path-1"></use>
            </mask>
            <use id="check-circle" fill="#42526E" fill-rule="nonzero" xlink:href="#path-1"></use>
        </g>
    </g>
</svg>