<?xml version="1.0" encoding="UTF-8"?>
<svg width="16px" height="16px" viewBox="0 0 16 16" version="1.1" xmlns="http://www.w3.org/2000/svg" xmlns:xlink="http://www.w3.org/1999/xlink">
    <!-- Generator: Sketch 48.2 (47327) - http://www.bohemiancoding.com/sketch -->
    <title>bitbucket/16px/create-fork-16px</title>
    <desc>Created with Sketch.</desc>
    <defs>
        <path d="M12.793,9.715 C12.402,9.324 11.77,9.324 11.379,9.715 C11.099,9.995 11.027,10.4 11.149,10.75 L8.5,10.75 L8.5,5.75 L8.5,3.75 C7.397,3.75 6.5,4.648 6.5,5.75 L6.5,7.25 L1.5,7.25 C0.947,7.25 0.5,7.697 0.5,8.25 C0.5,8.803 0.947,9.25 1.5,9.25 L6.5,9.25 L6.5,10.75 C6.5,11.853 7.397,12.75 8.5,12.75 L11.241,12.75 C11.015,13.134 11.05,13.628 11.379,13.957 C11.574,14.152 11.83,14.25 12.086,14.25 C12.342,14.25 12.598,14.152 12.793,13.957 L14.207,12.543 C14.598,12.153 14.598,11.52 14.207,11.129 L12.793,9.715 Z M15.5,4.75 C15.5,5.303 15.053,5.75 14.5,5.75 L13.5,5.75 L13.5,6.75 C13.5,7.303 13.053,7.75 12.5,7.75 C11.947,7.75 11.5,7.303 11.5,6.75 L11.5,5.75 L10.5,5.75 C9.947,5.75 9.5,5.303 9.5,4.75 C9.5,4.197 9.947,3.75 10.5,3.75 L11.5,3.75 L11.5,2.75 C11.5,2.197 11.947,1.75 12.5,1.75 C13.053,1.75 13.5,2.197 13.5,2.75 L13.5,3.75 L14.5,3.75 C15.053,3.75 15.5,4.197 15.5,4.75 Z" id="path-1"></path>
    </defs>
    <g id="Symbols" stroke="none" stroke-width="1" fill="none" fill-rule="evenodd">
        <g id="bitbucket/16px/create-fork">
            <mask id="mask-2" fill="white">
                <use xlink:href="#path-1"></use>
            </mask>
            <use id="create-fork" fill="#42526E" xlink:href="#path-1"></use>
        </g>
    </g>
</svg>