<?xml version="1.0" encoding="UTF-8"?>
<svg width="16px" height="16px" viewBox="0 0 16 16" version="1.1" xmlns="http://www.w3.org/2000/svg" xmlns:xlink="http://www.w3.org/1999/xlink">
    <!-- Generator: Sketch 48.2 (47327) - http://www.bohemiancoding.com/sketch -->
    <title>confluence/16px/insert-row-before</title>
    <desc>Created with Sketch.</desc>
    <defs></defs>
    <g id="Editor-icons---v2" stroke="none" stroke-width="1" fill="none" fill-rule="evenodd">
        <g id="confluence/16px/insert-row-before" fill="#42526E">
            <path d="M3,8 L3,7 L14,7 L14,5 L8,5 L8,3 L15,3 C15.5522847,3 16,3.44771525 16,4 L16,12 C16,12.5522847 15.5522847,13 15,13 L4,13 C3.44771525,13 3,12.5522847 3,12 L3,8 Z M5,9 L5,11 L14,11 L14,9 L5,9 Z" id="Combined-Shape" fill-rule="nonzero"></path>
            <path d="M3,2 L3,0.5 C3,0.223857625 3.22385763,5.07265313e-17 3.5,0 L4.5,0 C4.77614237,-5.07265313e-17 5,0.223857625 5,0.5 L5,2 L6.5,2 C6.77614237,2 7,2.22385763 7,2.5 L7,3.5 C7,3.77614237 6.77614237,4 6.5,4 L5,4 L5,5.5 C5,5.77614237 4.77614237,6 4.5,6 L3.5,6 C3.22385763,6 3,5.77614237 3,5.5 L3,4 L1.5,4 C1.22385763,4 1,3.77614237 1,3.5 L1,2.5 C1,2.22385763 1.22385763,2 1.5,2 L3,2 Z" id="Combined-Shape"></path>
        </g>
    </g>
</svg>