<?xml version="1.0" encoding="UTF-8"?>
<svg width="16px" height="16px" viewBox="0 0 16 16" version="1.1" xmlns="http://www.w3.org/2000/svg" xmlns:xlink="http://www.w3.org/1999/xlink">
    <!-- Generator: Sketch 48.2 (47327) - http://www.bohemiancoding.com/sketch -->
    <title>confluence/16px/Like</title>
    <desc>Created with Sketch.</desc>
    <defs>
        <path d="M1.0005039,7.99999968 L1.0005039,14.1818726 C0.994809739,14.4132041 1.08237142,14.6371095 1.24348664,14.8032077 C1.40460185,14.9693059 1.62573719,15.0636448 1.85713486,15.0649973 L2.74909081,15.0649973 L2.74909081,7.11687498 L1.85713486,7.11687498 C1.62573719,7.11822745 1.40460185,7.21256641 1.24348664,7.37866457 C1.08237142,7.54476272 0.994809739,7.76866813 1.0005039,7.99999968 Z M14.3710119,7.15219996 C13.8650123,6.55593552 13.1218498,6.21311142 12.3398251,6.21520465 L10.0348696,6.21520465 C10.0701946,6.05535908 10.1055196,5.89727976 10.1320134,5.74538231 C10.582407,3.15429442 10.1320134,2.21288348 9.690451,1.68830741 C9.28671689,1.2094394 8.6918513,0.933667471 8.06550154,0.935002035 C6.71426329,0.981577629 5.60523914,2.01930738 5.46911491,3.3644781 C5.12469627,4.98854443 5.07170879,5.13072751 4.62131519,5.77099292 L3.95014041,6.73271573 C3.74504381,7.02888479 3.634226,7.3801157 3.63221552,7.74036102 L3.63221552,13.2802023 C3.63338516,13.7498123 3.8210595,14.1997235 4.15395201,14.5309599 C4.48684453,14.8621962 4.93768617,15.0476242 5.40729618,15.0464517 L11.7481316,15.0464517 C13.0477219,15.0533387 14.1596376,14.1147619 14.3710119,12.8324581 L14.9627055,9.29995925 C15.0929099,8.53175996 14.8762556,7.74533748 14.3710119,7.15219996 Z M12.622425,12.5392607 C12.5510255,12.9660723 12.1808711,13.2782732 11.7481316,13.2766698 L5.40729618,13.2766759 L5.40729618,7.74036102 L6.07847095,6.77863821 C6.70965571,5.85630581 7.10118308,4.79129068 7.21770182,3.67975362 C7.24952,3.20062834 7.59579025,2.80097475 8.06550154,2.70125145 C8.73667632,2.70125145 8.56888262,4.39331838 8.38342644,5.43893803 C8.19499269,6.3053123 7.9411017,7.15614233 7.62393919,7.98410344 L12.3398251,7.97703844 C12.6000874,7.97607349 12.8475232,8.08996018 13.0160581,8.2882866 C13.184593,8.48661302 13.257064,8.74918225 13.2141186,9.00587872 L12.622425,12.5392607 Z" id="path-1"></path>
    </defs>
    <g id="Editor-icons" stroke="none" stroke-width="1" fill="none" fill-rule="evenodd">
        <g id="confluence/16px/Like">
            <mask id="mask-2" fill="white">
                <use xlink:href="#path-1"></use>
            </mask>
            <use id="Shape" fill="#A5ADBA" fill-rule="nonzero" xlink:href="#path-1"></use>
        </g>
    </g>
</svg>