<?xml version="1.0" encoding="UTF-8"?>
<svg width="16px" height="16px" viewBox="0 0 16 16" version="1.1" xmlns="http://www.w3.org/2000/svg" xmlns:xlink="http://www.w3.org/1999/xlink">
    <!-- Generator: Sketch 48.2 (47327) - http://www.bohemiancoding.com/sketch -->
    <title>icon/16px/pdf-16px</title>
    <desc>Created with Sketch.</desc>
    <defs>
        <path d="M2.11614195,3.27449277 C2.11614195,2.1705297 3.01999517,1.2755908 4.11237458,1.2755908 L11.8876254,1.2755908 C12.9901143,1.2755908 13.8838581,2.17888873 13.8838581,3.27449277 L13.8838581,12.7255072 C13.8838581,13.8294703 12.9800048,14.7244092 11.8876254,14.7244092 L4.11237458,14.7244092 C3.00988574,14.7244092 2.11614195,13.8211113 2.11614195,12.7255072 L2.11614195,3.27449277 Z M4.6377954,5.47834655 C4.6377954,5.94580661 5.01300533,6.3188977 5.47585023,6.3188977 L10.5241498,6.3188977 C10.9814044,6.3188977 11.3622046,5.94257013 11.3622046,5.47834655 C11.3622046,5.01088649 10.9869947,4.6377954 10.5241498,4.6377954 L5.47585023,4.6377954 C5.01859559,4.6377954 4.6377954,5.01412297 4.6377954,5.47834655 Z M10.9523946,11.3622046 C11.1787816,11.3622046 11.3622046,11.1754117 11.3622046,10.9448656 L11.3622046,7.57754525 C11.3622046,7.34615768 11.1787816,7.15936479 10.9523946,7.15936479 L9.25118738,7.15936479 C9.02397417,7.15936479 8.84055115,7.34615768 8.84055115,7.57754525 L8.84055115,10.9448656 C8.84055115,11.1754117 9.02397417,11.3622046 9.25118738,11.3622046 L10.9523946,11.3622046 Z M4.6377954,8 C4.6377954,8.46746006 5.01764874,8.84055115 5.48622159,8.84055115 L7.15157381,8.84055115 C7.61431238,8.84055115 8,8.46422358 8,8 C8,7.53253994 7.62014666,7.15944885 7.15157381,7.15944885 L5.48622159,7.15944885 C5.02348302,7.15944885 4.6377954,7.53577642 4.6377954,8 Z M4.6377954,10.5216535 C4.6377954,10.9891135 5.01764874,11.3622046 5.48622159,11.3622046 L7.15157381,11.3622046 C7.61431238,11.3622046 8,10.985877 8,10.5216535 C8,10.0541934 7.62014666,9.6811023 7.15157381,9.6811023 L5.48622159,9.6811023 C5.02348302,9.6811023 4.6377954,10.0574299 4.6377954,10.5216535 Z" id="path-1"></path>
    </defs>
    <g id="Symbols" stroke="none" stroke-width="1" fill="none" fill-rule="evenodd">
        <g id="icon/16px/pdf">
            <mask id="mask-2" fill="white">
                <use xlink:href="#path-1"></use>
            </mask>
            <use id="Combined-Shape" fill="#3F4F71" xlink:href="#path-1"></use>
        </g>
    </g>
</svg>