<?xml version="1.0" encoding="UTF-8"?>
<svg width="16px" height="16px" viewBox="0 0 16 16" version="1.1" xmlns="http://www.w3.org/2000/svg" xmlns:xlink="http://www.w3.org/1999/xlink">
    <!-- Generator: Sketch 48.2 (47327) - http://www.bohemiancoding.com/sketch -->
    <title>icon/16px/settings-16px</title>
    <desc>Created with Sketch.</desc>
    <defs>
        <path d="M8,12 C5.791,12 4,10.209 4,8 C4,5.791 5.791,4 8,4 C10.209,4 12,5.791 12,8 C12,10.209 10.209,12 8,12 M13.5,8 C13.5,7.227 14.087,6.598 14.839,6.516 C14.659,5.682 14.328,4.905 13.88,4.21 C13.632,4.391 13.33,4.5 13,4.5 C12.171,4.5 11.5,3.829 11.5,3 C11.5,2.67 11.609,2.368 11.79,2.12 C11.095,1.672 10.318,1.341 9.484,1.161 C9.402,1.913 8.773,2.5 8,2.5 C7.227,2.5 6.598,1.913 6.516,1.161 C5.682,1.341 4.905,1.672 4.21,2.12 C4.391,2.368 4.5,2.67 4.5,3 C4.5,3.829 3.829,4.5 3,4.5 C2.67,4.5 2.368,4.391 2.12,4.21 C1.672,4.905 1.341,5.682 1.161,6.516 C1.913,6.598 2.5,7.227 2.5,8 C2.5,8.773 1.913,9.402 1.161,9.484 C1.341,10.318 1.672,11.095 2.12,11.79 C2.368,11.609 2.67,11.5 3,11.5 C3.829,11.5 4.5,12.171 4.5,13 C4.5,13.33 4.391,13.632 4.21,13.88 C4.905,14.328 5.682,14.659 6.516,14.839 C6.598,14.087 7.227,13.5 8,13.5 C8.773,13.5 9.402,14.087 9.484,14.839 C10.318,14.659 11.095,14.328 11.79,13.88 C11.609,13.632 11.5,13.33 11.5,13 C11.5,12.171 12.171,11.5 13,11.5 C13.33,11.5 13.632,11.609 13.88,11.79 C14.328,11.095 14.659,10.318 14.839,9.484 C14.087,9.402 13.5,8.773 13.5,8" id="path-1"></path>
    </defs>
    <g id="Symbols" stroke="none" stroke-width="1" fill="none" fill-rule="evenodd">
        <g id="icon/16px/settings">
            <mask id="mask-2" fill="white">
                <use xlink:href="#path-1"></use>
            </mask>
            <use id="settings-small" fill="#42526E" xlink:href="#path-1"></use>
        </g>
    </g>
</svg>