<?xml version="1.0" encoding="UTF-8"?>
<svg width="16px" height="16px" viewBox="0 0 16 16" version="1.1" xmlns="http://www.w3.org/2000/svg" xmlns:xlink="http://www.w3.org/1999/xlink">
    <!-- Generator: Sketch 48.2 (47327) - http://www.bohemiancoding.com/sketch -->
    <title>icon/16px/sign-out-16px</title>
    <desc>Created with Sketch.</desc>
    <defs>
        <path d="M10.646,1.5 L8.084,1.5 L8.084,2.963 L13.205,2.963 L13.205,13.206 L8.084,13.206 L8.084,14.5 L13.89,14.5 C14.149,14.362 14.363,14.149 14.5,13.889 L14.5,2.278 C14.256,1.815 13.77,1.5 13.209,1.5 L10.646,1.5 Z M3.865,5.382 L1.721,7.544 C1.578,7.688 1.505,7.876 1.5,8.065 L1.5,8.102 C1.505,8.291 1.578,8.479 1.721,8.624 L3.865,10.787 C4.012,10.936 4.206,11.01 4.4,11.01 C4.594,11.01 4.788,10.936 4.936,10.787 C5.233,10.488 5.233,10.004 4.936,9.706 L4.053,8.815 L11.027,8.815 C11.421,8.815 11.742,8.488 11.742,8.084 C11.742,7.68 11.421,7.353 11.027,7.353 L4.054,7.353 L4.936,6.462 C5.233,6.164 5.233,5.68 4.936,5.382 C4.787,5.233 4.594,5.159 4.4,5.159 C4.206,5.159 4.012,5.233 3.865,5.382 Z" id="path-1"></path>
    </defs>
    <g id="Symbols" stroke="none" stroke-width="1" fill="none" fill-rule="evenodd">
        <g id="icon/16px/sign-out">
            <mask id="mask-2" fill="white">
                <use xlink:href="#path-1"></use>
            </mask>
            <use id="Clip-2" fill="#42526E" xlink:href="#path-1"></use>
        </g>
    </g>
</svg>