<?xml version="1.0" encoding="UTF-8"?>
<svg width="16px" height="16px" viewBox="0 0 16 16" version="1.1" xmlns="http://www.w3.org/2000/svg" xmlns:xlink="http://www.w3.org/1999/xlink">
    <!-- Generator: Sketch 48.2 (47327) - http://www.bohemiancoding.com/sketch -->
    <title>icon/16px/vid-pause-small-16px</title>
    <desc>Created with Sketch.</desc>
    <defs>
        <path d="M3,2.00684547 C3,1.45078007 3.44335318,1 4.0093689,1 L5.9906311,1 C6.54809015,1 7,1.44994876 7,2.00684547 L7,13.9931545 C7,14.5492199 6.55664682,15 5.9906311,15 L4.0093689,15 C3.45190985,15 3,14.5500512 3,13.9931545 L3,2.00684547 Z M9,2.00684547 C9,1.45078007 9.44335318,1 10.0093689,1 L11.9906311,1 C12.5480902,1 13,1.44994876 13,2.00684547 L13,13.9931545 C13,14.5492199 12.5566468,15 11.9906311,15 L10.0093689,15 C9.45190985,15 9,14.5500512 9,13.9931545 L9,2.00684547 Z" id="path-1"></path>
    </defs>
    <g id="Symbols" stroke="none" stroke-width="1" fill="none" fill-rule="evenodd">
        <g id="icon/16px/vid-pause-small">
            <mask id="mask-2" fill="white">
                <use xlink:href="#path-1"></use>
            </mask>
            <use id="vid-pause-small" fill="#42526E" xlink:href="#path-1"></use>
        </g>
    </g>
</svg>