<?xml version="1.0" encoding="UTF-8"?>
<svg width="24px" height="24px" viewBox="0 0 24 24" version="1.1" xmlns="http://www.w3.org/2000/svg" xmlns:xlink="http://www.w3.org/1999/xlink">
    <!-- Generator: Sketch 48.1 (47250) - http://www.bohemiancoding.com/sketch -->
    <title>icon/20px/folder-filled</title>
    <desc>Created with Sketch.</desc>
    <defs>
        <path d="M12.2,6 L20.0092049,6 C21.1086907,6 22,6.89339733 22,7.99188419 L22,19.0081158 C22,20.1082031 21.1017876,21 20.0092049,21 L3.99079514,21 C2.89130934,21 2,20.1066027 2,19.0081158 L2,7.99188419 L2,5.00585866 C2,3.89805351 2.89585781,3 3.9973917,3 L9.0026083,3 C10.1057373,3 11.3302593,3.82564831 11.7447262,4.86181545 L12.2,6 Z" id="path-1"></path>
    </defs>
    <g id="Symbols" stroke="none" stroke-width="1" fill="none" fill-rule="evenodd">
        <g id="icon/20px/folder-filled">
            <mask id="mask-2" fill="white">
                <use xlink:href="#path-1"></use>
            </mask>
            <use id="folder-filled" fill="#3F4F71" xlink:href="#path-1"></use>
        </g>
    </g>
</svg>