<?xml version="1.0" encoding="UTF-8"?>
<svg width="24px" height="24px" viewBox="0 0 24 24" version="1.1" xmlns="http://www.w3.org/2000/svg" xmlns:xlink="http://www.w3.org/1999/xlink">
    <!-- Generator: Sketch 48.1 (47250) - http://www.bohemiancoding.com/sketch -->
    <title>icon/20px/question-filled</title>
    <desc>Created with Sketch.</desc>
    <defs>
        <path d="M12,21 C7.02943725,21 3,16.9705627 3,12 C3,7.02943725 7.02943725,3 12,3 C16.9705627,3 21,7.02943725 21,12 C21,16.9705627 16.9705627,21 12,21 Z M13,17 C13,16.448 12.552,16 12,16 C11.448,16 11,16.448 11,17 C11,17.552 11.448,18 12,18 C12.552,18 13,17.552 13,17 Z M15.5,9.5 C15.5,7.57 13.93,6 12,6 C10.07,6 8.5,7.57 8.5,9.5 C8.5,10.052 8.948,10.5 9.5,10.5 C10.052,10.5 10.5,10.052 10.5,9.5 C10.5,8.673 11.173,8 12,8 C12.827,8 13.5,8.673 13.5,9.5 C13.5,10.327 12.827,11 12,11 C11.448,11 11,11.448 11,12 L11,14 C11,14.552 11.448,15 12,15 C12.552,15 13,14.552 13,14 L13,12.854 C14.444,12.423 15.5,11.083 15.5,9.5 Z" id="path-1"></path>
    </defs>
    <g id="Symbols" stroke="none" stroke-width="1" fill="none" fill-rule="evenodd">
        <g id="icon/20px/question-filled">
            <mask id="mask-2" fill="white">
                <use xlink:href="#path-1"></use>
            </mask>
            <use id="question-filled" fill="#42526E" xlink:href="#path-1"></use>
        </g>
    </g>
</svg>