<?xml version="1.0" encoding="UTF-8"?>
<svg width="24px" height="24px" viewBox="0 0 24 24" version="1.1" xmlns="http://www.w3.org/2000/svg" xmlns:xlink="http://www.w3.org/1999/xlink">
    <!-- Generator: Sketch 48.1 (47250) - http://www.bohemiancoding.com/sketch -->
    <title>icon/20px/video</title>
    <desc>Created with Sketch.</desc>
    <defs>
        <path d="M4,5.99406028 C4,4.8927712 4.89451376,4 5.99406028,4 L18.0059397,4 C19.1072288,4 20,4.89451376 20,5.99406028 L20,18.0059397 C20,19.1072288 19.1054862,20 18.0059397,20 L5.99406028,20 C4.8927712,20 4,19.1054862 4,18.0059397 L4,5.99406028 Z M16.37,14.9536722 C16.6554286,15.0919557 17,14.9039523 17,14.6110711 L17,9.38892889 C17,9.09604766 16.6554286,8.90804433 16.37,9.04632777 L14,10.1937696 L14,13.8070073 L16.37,14.9536722 Z M7,9.99077797 L7,14.009222 C7,14.5490248 7.44358641,15 7.99077797,15 L12.009222,15 C12.5490248,15 13,14.5564136 13,14.009222 L13,9.99077797 C13,9.45097518 12.5564136,9 12.009222,9 L7.99077797,9 C7.45097518,9 7,9.44358641 7,9.99077797 Z" id="path-1"></path>
    </defs>
    <g id="Symbols" stroke="none" stroke-width="1" fill="none" fill-rule="evenodd">
        <g id="icon/20px/video">
            <mask id="mask-2" fill="white">
                <use xlink:href="#path-1"></use>
            </mask>
            <use id="video" fill="#42526E" xlink:href="#path-1"></use>
        </g>
    </g>
</svg>