<?xml version="1.0" encoding="UTF-8"?>
<svg width="24px" height="24px" viewBox="0 0 24 24" version="1.1" xmlns="http://www.w3.org/2000/svg" xmlns:xlink="http://www.w3.org/1999/xlink">
    <!-- Generator: Sketch 48.1 (47250) - http://www.bohemiancoding.com/sketch -->
    <title>icon/20px/watch-filled</title>
    <desc>Created with Sketch.</desc>
    <defs>
        <path d="M12.0005003,4 C17.5195357,4 22,8.84 22,12 C22,15.086 17.4234829,20 12.0005003,20 C6.57751763,20 2,15.086 2,12 C2,8.84 6.48046426,4 12.0005003,4 Z M11.9834909,15.984 C14.1907049,15.984 15.9856921,14.19 15.9856921,11.984 C15.9856921,9.778 14.1907049,7.984 11.9834909,7.984 C9.77627695,7.984 7.98128971,9.778 7.98128971,11.984 C7.98128971,14.19 9.77627695,15.984 11.9834909,15.984 Z M12,13.9996 C10.8954305,13.9996 10,13.1041695 10,11.9996 C10,10.8950305 10.8954305,9.9996 12,9.9996 C13.1045695,9.9996 14,10.8950305 14,11.9996 C14,13.1041695 13.1045695,13.9996 12,13.9996 Z" id="path-1"></path>
    </defs>
    <g id="Symbols" stroke="none" stroke-width="1" fill="none" fill-rule="evenodd">
        <g id="icon/20px/watch-filled">
            <mask id="mask-2" fill="white">
                <use xlink:href="#path-1"></use>
            </mask>
            <use id="watch-filled" fill="#3F4F71" xlink:href="#path-1"></use>
        </g>
    </g>
</svg>